0.0	0.0
0.5	8638.125
1.5	187.5
2.5	871.875
3.5	154.375
4.5	0.625
5.5	0.0
6.5	0.0
7.5	936.875
8.5	27719.375
9.5	405302.5
10.5	1861026.25
11.5	1810425.0
12.5	1320007.5
14.5	4872422.5
16.5	12182568.125
20.5	32355373.125
24.5	48141041.25
26.5	53577493.75
28.5	56172166.25
32.5	58043391.25
34.5	57371991.25
36.5	56477275.625
40.5	51003040.0
44.5	47301055.0
48.5	43127769.375
50.5	39525126.25
54.5	36123725.625
56.5	33703136.875
57.5	77692470.625
58.5	37203594.375
59.5	113155275.0
61.5	29428272.5
64.5	26222469.375
67.5	24707801.875
68.5	49387506.875
69.5	21416336.25
70.5	26180340.625
72.5	16361671.875
76.5	14498997.5
80.5	13196246.875
88.5	6654514.375
98.5	0.0
100.0	0.0
