# mesh name: cyl_tdk
# primitive scorer name: dDep
# iZ, iPHI, iR, value [Gy]
0,0,0,0.003451050483671319
0,0,1,0.003350660319793499
0,0,2,0.003221356857445206
0,0,3,0.003031551240876014
0,0,4,0.002836100848701596
0,0,5,0.002623129665659649
0,0,6,0.002409931934514634
0,0,7,0.002199589027170107
0,0,8,0.001995783782210042
0,0,9,0.001786020255354296
0,0,10,0.001584064825194489
0,0,11,0.001385078406358575
0,0,12,0.001192526541130948
0,0,13,0.001009192779615025
0,0,14,0.000838745057175399
0,0,15,0.0006744743520255838
0,0,16,0.0005206456430990935
0,0,17,0.000381303275254154
0,0,18,0.0002646751915449961
0,0,19,0.000176949324683113
0,0,20,0.0001181349499339262
0,0,21,8.178692968706254e-05
0,0,22,5.934316694345674e-05
0,0,23,4.738998960001355e-05
0,0,24,4.035987383486042e-05
# primitive scorer name: eDep
# iZ, iPHI, iR, value [MeV]
0,0,0,33834.58356379282
0,0,1,98551.03289895836
0,0,2,157913.1749851012
0,0,3,208052.2785478074
0,0,4,250249.7788812545
0,0,5,282892.8476139911
0,0,6,307155.0443826402
0,0,7,323476.1955728865
0,0,8,332638.0558783405
0,0,9,332697.4744026195
0,0,10,326138.2738372891
0,0,11,312328.5735725895
0,0,12,292292.4418148028
0,0,13,267145.2286994576
0,0,14,238472.0553753524
0,0,15,204991.8791188906
0,0,16,168447.9389285225
0,0,17,130842.2799601045
0,0,18,96011.77158516122
0,0,19,67658.60508103161
0,0,20,47486.67717976317
0,0,21,34479.5733822786
0,0,22,26181.39339528159
0,0,23,21837.05130579465
0,0,24,19388.99966465092
