# mesh name: cyl_tdk
# primitive scorer name: dDep
# iZ, iPHI, iR, value [Gy]
0,0,0,0.003450241383535019
0,0,1,0.003350733932602832
0,0,2,0.003216856367083977
0,0,3,0.00303176458357814
0,0,4,0.00283615647774596
0,0,5,0.002624708148424158
0,0,6,0.002409241379797407
0,0,7,0.002200159770583358
0,0,8,0.001996780420770631
0,0,9,0.001786682585147408
0,0,10,0.001585383532914265
0,0,11,0.001385829032061382
0,0,12,0.001191959148588708
0,0,13,0.001010029752001699
0,0,14,0.0008388425081585211
0,0,15,0.0006747934951301496
0,0,16,0.0005211179106238235
0,0,17,0.00038122441096366
0,0,18,0.0002648889936795376
0,0,19,0.0001769079192160946
0,0,20,0.0001182850573724707
0,0,21,8.17468804023171e-05
0,0,22,5.925436598867465e-05
0,0,23,4.742741352997585e-05
0,0,24,4.034212825414563e-05
# primitive scorer name: eDep
# iZ, iPHI, iR, value [MeV]
0,0,0,33826.65103243981
0,0,1,98553.19802992002
0,0,2,157692.5577876315
0,0,3,208066.9200404586
0,0,4,250254.6874358921
0,0,5,283063.0799474766
0,0,6,307067.0305422846
0,0,7,323560.130301467
0,0,8,332804.1660131216
0,0,9,332820.8523143284
0,0,10,326409.7785462929
0,0,11,312497.8360879704
0,0,12,292153.3719107935
0,0,13,267366.7851594221
0,0,14,238499.7626459283
0,0,15,205088.8757571084
0,0,16,168600.7347738704
0,0,17,130815.2180798628
0,0,18,96089.32899274009
0,0,19,67642.77322551867
0,0,20,47547.01583043543
0,0,21,34462.68948337984
0,0,22,26142.2156288978
0,0,23,21854.29605063557
0,0,24,19380.47463655138
