# mesh name: cyl_tdk
# primitive scorer name: dDep
# iZ, iPHI, iR, value [Gy]
0,0,0,0.003462355727923275
0,0,1,0.00336641393177481
0,0,2,0.003236036935680318
0,0,3,0.003043896826136837
0,0,4,0.002848228182648058
0,0,5,0.002630675695503516
0,0,6,0.002414576832693771
0,0,7,0.002211281874996994
0,0,8,0.001999510504317749
0,0,9,0.001795729351559109
0,0,10,0.001588332237233416
0,0,11,0.00138896824916276
0,0,12,0.00119657500156573
0,0,13,0.001010955905011418
0,0,14,0.0008396218175640509
0,0,15,0.0006759646439117886
0,0,16,0.0005204879838861903
0,0,17,0.0003808845243217718
0,0,18,0.000263317362447426
0,0,19,0.0001766122529533357
0,0,20,0.0001179699901864529
0,0,21,8.08993266645481e-05
0,0,22,5.852936698228937e-05
0,0,23,4.605918809141302e-05
0,0,24,3.882587542270593e-05
# primitive scorer name: eDep
# iZ, iPHI, iR, value [MeV]
0,0,0,33945.42176601377
0,0,1,99014.38477122257
0,0,2,158632.802727674
0,0,3,208899.5435089074
0,0,4,251319.8616462853
0,0,5,283706.6533129719
0,0,6,307747.0544249794
0,0,7,325195.7704039019
0,0,8,333259.1900947323
0,0,9,334506.0719116858
0,0,10,327016.8782816203
0,0,11,313205.7145699472
0,0,12,293284.7336802948
0,0,13,267611.94878191
0,0,14,238721.3359529189
0,0,15,205444.8210779957
0,0,16,168396.9303975105
0,0,17,130698.587707064
0,0,18,95519.21474062452
0,0,19,67529.72183667091
0,0,20,47420.36835004397
0,0,21,34105.37944119456
0,0,22,25822.35598582965
0,0,23,21223.82515684804
0,0,24,18652.06240809333
