17.4698795181	0.00657894736842
18.8253012048	0.015350877193
20.3313253012	0.0285087719298
22.7409638554	0.0592105263158
24.2469879518	0.0811403508772
24.6987951807	0.0877192982456
25.0	0.0921052631579
25.4518072289	0.0964912280702
26.3554216867	0.0986842105263
27.1084337349	0.109649122807
27.8614457831	0.118421052632
29.0662650602	0.125
30.421686747	0.138157894737
32.3795180723	0.146929824561
33.8855421687	0.142543859649
35.9939759036	0.15350877193
38.2530120482	0.146929824561
38.7048192771	0.151315789474
38.8554216867	0.146929824561
39.0060240964	0.144736842105
40.3614457831	0.140350877193
42.1686746988	0.142543859649
43.2228915663	0.142543859649
43.8253012048	0.140350877193
44.1265060241	0.133771929825
44.578313253	0.131578947368
45.3313253012	0.127192982456
46.5361445783	0.135964912281
47.2891566265	0.131578947368
47.5903614458	0.127192982456
48.0421686747	0.122807017544
48.1927710843	0.122807017544
48.6445783133	0.116228070175
49.5481927711	0.114035087719
50.6024096386	0.107456140351
51.3554216867	0.118421052632
51.656626506	0.118421052632
52.1084337349	0.111842105263
52.7108433735	0.105263157895
53.4638554217	0.116228070175
53.765060241	0.114035087719
54.0662650602	0.109649122807
54.5180722892	0.105263157895
54.8192771084	0.100877192982
62.0481927711	0.0789473684211
62.3493975904	0.0701754385965
62.8012048193	0.0679824561404
63.8554216867	0.0679824561404
65.0602409639	0.0592105263158
65.6626506024	0.0614035087719
73.9457831325	0.0416666666667
75.4518072289	0.0372807017544
76.2048192771	0.0350877192982
76.9578313253	0.0394736842105
77.4096385542	0.0416666666667
77.8614457831	0.0416666666667
78.1626506024	0.0394736842105
78.313253012	0.0372807017544
78.765060241	0.0350877192982
79.5180722892	0.0328947368421
80.421686747	0.0285087719298
81.4759036145	0.0263157894737
82.2289156627	0.030701754386
82.8313253012	0.030701754386
83.5843373494	0.0285087719298
83.8855421687	0.0263157894737
84.3373493976	0.0219298245614
85.5421686747	0.0219298245614
86.7469879518	0.0219298245614
87.0481927711	0.0197368421053
88.1024096386	0.015350877193
90.3614457831	0.0175438596491
92.1686746988	0.015350877193
93.0722891566	0.0131578947368
93.5240963855	0.0109649122807
94.2771084337	0.00877192982456
94.8795180723	0.00657894736842
95.6325301205	0.00219298245614
96.686746988	0.00438596491228
97.1385542169	0.00219298245614
100.0	0.0
