66.1144578313	0.0657894736842
66.4156626506	0.0767543859649
66.5662650602	0.0811403508772
66.8674698795	0.0986842105263
67.0180722892	0.111842105263
67.1686746988	0.120614035088
67.3192771084	0.131578947368
67.4698795181	0.138157894737
67.4698795181	0.138157894737
67.6204819277	0.129385964912
67.7710843373	0.116228070175
67.921686747	0.100877192982
68.0722891566	0.0877192982456
68.2228915663	0.0745614035088
68.3734939759	0.0723684210526
68.6746987952	0.0635964912281
