0	0
17.46987951807229	0.006578947368421052
18.82530120481928	0.015350877192982455
20.33132530120482	0.02850877192982456
22.74096385542169	0.05921052631578947
24.24698795180723	0.08114035087719298
24.698795180722893	0.08771929824561403
25.000000000000004	0.09210526315789472
25.451807228915666	0.09649122807017543
26.35542168674699	0.09868421052631579
27.108433734939762	0.10964912280701752
27.86144578313253	0.11842105263157893
29.066265060240966	0.125
30.421686746987955	0.1381578947368421
32.37951807228916	0.1469298245614035
33.885542168674704	0.1425438596491228
35.99397590361446	0.15350877192982454
38.25301204819277	0.1469298245614035
38.704819277108435	0.15131578947368418
38.85542168674699	0.1469298245614035
39.006024096385545	0.14473684210526314
40.36144578313253	0.14035087719298245
42.168674698795186	0.1425438596491228
43.22289156626506	0.1425438596491228
43.82530120481928	0.14035087719298245
44.126506024096386	0.13377192982456138
44.578313253012055	0.13157894736842105
45.33132530120482	0.12719298245614033
46.536144578313255	0.13596491228070173
47.28915662650603	0.13157894736842105
47.59036144578314	0.12719298245614033
48.0421686746988	0.12280701754385964
48.19277108433735	0.12280701754385964
48.644578313253014	0.1162280701754386
49.548192771084345	0.11403508771929824
50.60240963855422	0.1074561403508772
51.35542168674699	0.11842105263157893
51.656626506024104	0.11842105263157893
52.108433734939766	0.11184210526315788
52.71084337349398	0.10526315789473684
53.46385542168675	0.1162280701754386
53.76506024096386	0.11403508771929824
54.066265060240966	0.10964912280701752
54.518072289156635	0.10526315789473684
54.81927710843374	0.10087719298245612
55.2710843373494	0.09429824561403508
55.72289156626506	0.09210526315789472
56.32530120481928	0.10307017543859648
56.62650602409639	0.12061403508771928
57.078313253012055	0.16228070175438594
57.22891566265061	0.17105263157894735
57.53012048192772	0.1907894736842105
57.68072289156627	0.1864035087719298
57.83132530120483	0.168859649122807
57.98192771084338	0.13377192982456138
58.13253012048193	0.10964912280701752
58.58433734939759	0.09649122807017543
58.73493975903615	0.125
58.885542168674704	0.1425438596491228
59.036144578313255	0.17982456140350875
59.186746987951814	0.20614035087719296
59.48795180722892	0.24780701754385964
59.638554216867476	0.23684210526315788
59.78915662650603	0.19517543859649122
59.939759036144586	0.18859649122807015
60.09036144578314	0.15350877192982454
60.39156626506025	0.09210526315789472
60.84337349397591	0.08114035087719298
61.29518072289157	0.09429824561403508
61.445783132530124	0.09429824561403508
61.59638554216868	0.09210526315789472
61.746987951807235	0.08552631578947367
61.897590361445786	0.08333333333333331
62.048192771084345	0.07894736842105263
62.34939759036145	0.07017543859649122
62.80120481927711	0.06798245614035087
63.85542168674699	0.06798245614035087
65.06024096385542	0.05921052631578947
65.66265060240964	0.06140350877192983
66.11445783132531	0.06578947368421051
66.41566265060241	0.07675438596491227
66.56626506024097	0.08114035087719298
66.86746987951808	0.09868421052631579
67.01807228915663	0.11184210526315788
67.16867469879519	0.12061403508771928
67.31927710843374	0.13157894736842105
67.46987951807229	0.1381578947368421
67.62048192771086	0.1293859649122807
67.77108433734941	0.1162280701754386
67.92168674698796	0.10087719298245612
68.07228915662651	0.08771929824561403
68.22289156626506	0.07456140350877191
68.37349397590361	0.07236842105263158
68.67469879518073	0.06359649122807018
69.12650602409639	0.07017543859649122
69.57831325301206	0.07017543859649122
69.87951807228916	0.06578947368421051
70.03012048192771	0.05921052631578947
70.18072289156628	0.05701754385964912
70.48192771084338	0.05263157894736842
70.78313253012048	0.05043859649122807
71.3855421686747	0.04824561403508772
71.98795180722892	0.046052631578947366
72.59036144578315	0.041666666666666664
73.94578313253012	0.041666666666666664
75.45180722891567	0.03728070175438596
76.20481927710844	0.03508771929824561
76.95783132530121	0.039473684210526314
77.40963855421687	0.041666666666666664
77.86144578313254	0.041666666666666664
78.16265060240964	0.039473684210526314
78.3132530120482	0.03728070175438596
78.76506024096386	0.03508771929824561
79.51807228915663	0.03289473684210526
80.42168674698796	0.02850877192982456
81.47590361445783	0.02631578947368421
82.2289156626506	0.03070175438596491
82.83132530120483	0.03070175438596491
83.5843373493976	0.02850877192982456
83.8855421686747	0.02631578947368421
84.33734939759037	0.021929824561403508
85.5421686746988	0.021929824561403508
86.74698795180724	0.021929824561403508
87.04819277108435	0.019736842105263157
88.10240963855422	0.015350877192982455
90.36144578313254	0.017543859649122806
92.16867469879519	0.015350877192982455
93.07228915662651	0.013157894736842105
93.52409638554218	0.010964912280701754
94.27710843373495	0.008771929824561403
94.87951807228916	0.006578947368421052
95.63253012048193	0.0021929824561403508
96.68674698795182	0.0043859649122807015
97.13855421686748	0.0021929824561403508
100	0
