# mesh name: cyl_tdk
# primitive scorer name: dDep
# iZ, iPHI, iR, value [Gy]
0,0,0,0.020163293896316943
0,0,1,0.019608766640648027
0,0,2,0.018833770000505862
0,0,3,0.017743918132310826
0,0,4,0.016565134855279714
0,0,5,0.015335996215457247
0,0,6,0.014075571373011976
0,0,7,0.012886365963823315
0,0,8,0.011657363548077511
0,0,9,0.010465455827640947
0,0,10,0.009262805011242317
0,0,11,0.008107524243084476
0,0,12,0.006983380387959726
0,0,13,0.005909865428814487
0,0,14,0.004917747128750159
0,0,15,0.003962409783681591
0,0,16,0.0030560025408640683
0,0,17,0.0022479794668703555
0,0,18,0.0015505528109089131
0,0,19,0.0010472098785514338
0,0,20,0.0006971927645802204
0,0,21,0.0004789188788276754
0,0,22,0.0003483504421320345
0,0,23,0.00026965436383035064
0,0,24,0.00022926064682808638
