# mesh name: cyl_tdk
# primitive scorer name: dDep
# iZ, iPHI, iR, value [Gy]
0,0,0,0.00346190199887502
0,0,1,0.003367173172990653
0,0,2,0.003242300830734251
0,0,3,0.003044239920480426
0,0,4,0.002846607643256074
0,0,5,0.002632852534174295
0,0,6,0.002415351182206795
0,0,7,0.002210979317727357
0,0,8,0.001999667295981992
0,0,9,0.001796175744618108
0,0,10,0.001587713718975297
0,0,11,0.001389990317082914
0,0,12,0.001197153584610038
0,0,13,0.001010029315808912
0,0,14,0.0008392205671476601
0,0,15,0.0006755215930040646
0,0,16,0.0005204335103671997
0,0,17,0.0003811167800280098
0,0,18,0.0002631832763393556
0,0,19,0.0001764784110031665
0,0,20,0.0001179040325627735
0,0,21,8.083698998548767e-05
0,0,22,5.86239012254772e-05
0,0,23,4.611614127637732e-05
0,0,24,3.889709795019139e-05
# primitive scorer name: eDep
# iZ, iPHI, iR, value [MeV]
0,0,0,33940.97334270704
0,0,1,99036.71589371625
0,0,2,158939.8632613281
0,0,3,208923.0897247503
0,0,4,251176.8696843515
0,0,5,283941.4156651488
0,0,6,307845.7482328401
0,0,7,325151.275694533
0,0,8,333285.3226221136
0,0,9,334589.2254161186
0,0,10,326889.5334445825
0,0,11,313436.1860105334
0,0,12,293426.5464157194
0,0,13,267366.6696941174
0,0,14,238607.2524054616
0,0,15,205310.1653452039
0,0,16,168379.3062185509
0,0,17,130778.2850716216
0,0,18,95470.5745764107
0,0,19,67478.54583096362
0,0,20,47393.85538004692
0,0,21,34079.09966631435
0,0,22,25864.06320062337
0,0,23,21250.0688769373
0,0,24,18686.27791548453
