0.0	0.0
0.5	0.0
1.5	0.0
2.5	0.0
3.5	0.0
4.5	0.0
5.5	0.0
6.5	0.0
7.5	0.0
8.5	0.0
9.5	0.007
10.5	0.032
11.5	0.031
12.5	0.023
14.5	0.084
16.5	0.21
20.5	0.557
24.5	0.829
26.5	0.923
28.5	0.968
32.5	1.0
34.5	0.988
36.5	0.973
40.5	0.879
44.5	0.815
48.5	0.743
50.5	0.681
54.5	0.622
56.5	0.581
57.5	1.339
58.5	0.641
59.5	1.949
61.5	0.507
64.5	0.452
67.5	0.426
68.5	0.851
69.5	0.369
70.5	0.451
72.5	0.282
76.5	0.25
80.5	0.227
88.5	0.115
98.5	0.0
100.0	0.0
