0	0.07	0	0.003
3.92	0.07	-0.006	0.006
5.01	0.2	0.139	0.009
5.14	0.07	0.146	0.003
6.09	0.27	0.335	0.003
7.71	0.27	0.823	0.003
9.88	0.41	2.924	0.006
11.77	0.2	0.582	0.003
12.18	0.34	0.582	0.003
12.99	0.07	0.449	0.006
13.94	0.2	0.519	0.009
14.21	0.14	0.525	0.003
15.83	0.2	0.652	0.006
16.78	0.34	0.709	0.009
17.86	0.14	0.772	0.006
18.0	0.07	0.772	0.006
18.13	0.07	0.778	0.003
18.94	0.34	0.816	0.006
20.03	0.07	0.861	0.006
21.11	0.2	0.899	0.006
21.92	0.14	0.924	0.009
22.06	0.07	0.93	0.003
23.0	0.14	0.956	0.013
24.76	0.27	0.994	0.003
26.79	0.47	1.0	0.003
28.01	0.2	0.994	0.003
28.96	0.14	0.981	0.009
30.04	0.14	0.975	0.006
30.99	0.2	0.962	0.006
31.94	0.14	0.943	0.009
32.07	0.07	0.949	0.003
33.02	0.2	0.937	0.003
34.1	0.2	0.905	0.006
34.91	0.14	0.886	0.009
35.72	0.07	0.873	0.003
35.99	0.14	0.867	0.009
36.94	0.2	0.848	0.006
38.02	0.2	0.829	0.006
38.84	0.14	0.81	0.009
38.97	0.07	0.816	0.003
39.92	0.14	0.785	0.009
40.05	0.07	0.791	0.006
41.0	0.14	0.753	0.009
41.95	0.14	0.734	0.009
42.76	0.07	0.715	0.003
43.03	0.14	0.709	0.006
43.84	0.14	0.69	0.009
43.98	0.07	0.696	0.003
45.06	0.2	0.671	0.006
46.01	0.2	0.652	0.003
46.96	0.14	0.633	0.009
47.9	0.14	0.614	0.009
48.99	0.2	0.608	0.006
49.8	0.07	0.589	0.003
50.07	0.14	0.582	0.006
50.88	0.14	0.557	0.009
51.01	0.07	0.563	0.003
52.1	0.2	0.538	0.006
52.91	0.14	0.525	0.009
53.04	0.07	0.532	0.003
53.72	0.07	0.519	0.003
53.99	0.14	0.513	0.009
54.67	0.07	0.5	0.003
54.94	0.14	0.494	0.009
56.02	0.2	0.487	0.003
56.83	0.14	0.456	0.009
56.97	0.07	0.462	0.003
57.78	0.07	1.076	0.003
58.05	0.14	1.07	0.006
58.86	0.27	0.43	0.006
59.95	0.14	1.519	0.009
60.08	0.07	1.525	0.003
60.89	0.14	0.399	0.009
61.03	0.07	0.405	0.003
61.98	0.2	0.38	0.003
63.06	0.2	0.373	0.003
63.87	0.27	0.348	0.006
64.95	0.14	0.342	0.006
65.63	0.07	0.335	0.003
65.9	0.14	0.329	0.006
66.85	0.14	0.316	0.009
66.98	0.07	0.323	0.003
67.79	0.14	0.69	0.009
68.74	0.07	0.291	0.006
68.88	0.07	0.285	0.009
69.96	0.14	0.348	0.006
70.77	0.07	0.241	0.006
70.91	0.07	0.234	0.006
71.99	0.2	0.228	0.006
72.67	0.07	0.222	0.003
72.94	0.14	0.215	0.009
73.88	0.14	0.209	0.006
74.83	0.14	0.196	0.009
76.73	0.27	0.19	0.003
77.0	0.07	0.19	0.003
77.94	0.14	0.177	0.006
96.89	0.14	0.032	0.006
99.05	0.2	0.019	0.006
100	0.07	0	0.003
