0	0.08	0	0.003
3.31	0.15	0.006	0.01
3.77	0.38	0.045	0.026
4.52	0.3	0.136	0.032
5.42	0.68	0.299	0.042
6.48	0.3	0.545	0.049
7.08	0.38	0.695	0.055
7.83	0.3	1.078	0.253
8.13	0.08	1.422	0.244
8.28	0.08	1.591	0.244
8.43	0.08	1.766	0.247
8.58	0.08	1.955	0.25
8.73	0.08	2.117	0.247
8.89	0.08	2.299	0.25
9.04	0.08	2.448	0.227
9.19	0.08	2.682	0.218
9.34	0.08	2.76	0.185
9.49	0.08	2.721	0.221
9.64	0.08	2.571	0.37
9.79	0.08	2.175	0.305
9.94	0.08	1.994	0.448
10.09	0.08	1.675	0.442
10.24	0.08	1.37	0.451
10.39	0.08	1.123	0.386
10.99	0.45	0.669	0.042
11.75	0.3	0.539	0.023
12.35	0.38	0.474	0.023
13.1	0.23	0.494	0.016
13.55	0.23	0.526	0.016
14.01	0.3	0.552	0.016
14.61	0.23	0.591	0.013
15.06	0.23	0.617	0.019
15.51	0.23	0.649	0.016
15.96	0.3	0.682	0.016
16.57	0.38	0.721	0.016
17.32	0.23	0.76	0.01
17.77	0.23	0.786	0.016
18.22	0.23	0.812	0.016
18.67	0.3	0.831	0.013
19.28	0.23	0.851	0.01
19.58	0.15	0.87	0.013
20.03	0.23	0.883	0.01
20.48	0.23	0.903	0.013
20.78	0.15	0.909	0.01
21.23	0.23	0.922	0.01
21.69	0.3	0.935	0.01
22.29	0.3	0.955	0.013
22.89	0.38	0.968	0.01
23.95	0.68	0.987	0.01
26.2	1.43	1.0	0.01
27.86	0.23	0.994	0.006
28.31	0.3	0.987	0.01
29.22	0.53	0.981	0.01
29.97	0.23	0.974	0.006
30.42	0.23	0.968	0.01
30.87	0.3	0.961	0.01
31.33	0.15	0.955	0.006
31.78	0.23	0.942	0.01
32.08	0.15	0.942	0.01
32.38	0.15	0.935	0.01
32.68	0.15	0.929	0.01
33.13	0.23	0.922	0.006
33.28	0.08	0.916	0.01
33.73	0.23	0.909	0.006
33.89	0.08	0.903	0.01
34.34	0.23	0.896	0.01
34.64	0.15	0.89	0.013
35.09	0.23	0.877	0.01
35.24	0.08	0.877	0.013
35.54	0.15	0.87	0.006
35.69	0.08	0.864	0.01
36.14	0.23	0.857	0.01
36.45	0.15	0.851	0.01
36.75	0.15	0.844	0.01
37.2	0.23	0.831	0.01
37.35	0.08	0.831	0.01
37.8	0.38	0.825	0.01
38.55	0.23	0.818	0.006
38.7	0.08	0.812	0.006
38.86	0.08	0.805	0.01
39.31	0.23	0.792	0.01
39.61	0.15	0.786	0.013
39.76	0.08	0.779	0.01
40.06	0.15	0.773	0.013
40.36	0.15	0.766	0.006
40.51	0.08	0.76	0.01
40.96	0.23	0.753	0.006
41.27	0.15	0.747	0.01
41.57	0.15	0.74	0.013
41.87	0.15	0.727	0.013
42.02	0.08	0.721	0.01
42.32	0.15	0.714	0.013
42.47	0.08	0.708	0.01
42.92	0.3	0.701	0.01
43.37	0.15	0.695	0.01
43.83	0.23	0.688	0.013
43.98	0.08	0.682	0.013
44.13	0.08	0.675	0.01
44.43	0.15	0.669	0.01
44.88	0.23	0.662	0.006
45.33	0.3	0.656	0.006
45.93	0.23	0.643	0.01
46.39	0.23	0.63	0.01
46.54	0.08	0.63	0.01
46.99	0.3	0.617	0.01
47.29	0.08	0.617	0.01
47.74	0.23	0.61	0.006
48.19	0.3	0.604	0.01
48.64	0.15	0.597	0.013
48.95	0.15	0.584	0.01
49.25	0.15	0.578	0.01
49.55	0.15	0.571	0.01
50.0	0.38	0.565	0.006
50.45	0.08	0.558	0.006
50.6	0.08	0.552	0.01
50.9	0.15	0.545	0.01
51.36	0.23	0.532	0.01
51.51	0.08	0.532	0.01
51.96	0.3	0.526	0.01
52.56	0.3	0.519	0.01
53.16	0.3	0.513	0.006
53.61	0.15	0.506	0.006
53.92	0.15	0.5	0.01
54.22	0.15	0.494	0.01
54.67	0.23	0.487	0.01
55.12	0.23	0.481	0.006
55.42	0.15	0.474	0.01
55.72	0.15	0.468	0.01
56.17	0.3	0.461	0.006
56.48	0.08	0.565	0.023
56.78	0.08	0.734	0.016
57.08	0.08	0.883	0.052
57.23	0.08	0.948	0.078
57.53	0.15	1.006	0.081
57.68	0.08	1.0	0.078
57.83	0.08	0.961	0.062
57.98	0.08	0.799	0.104
58.13	0.08	0.792	0.026
58.43	0.15	0.623	0.023
59.04	0.08	1.305	0.006
59.19	0.08	1.403	0.104
59.49	0.15	1.416	0.13
59.64	0.08	1.409	0.127
59.79	0.08	1.344	0.029
59.94	0.08	1.156	0.068
60.24	0.08	0.838	0.065
60.39	0.08	0.539	0.036
61.3	0.53	0.377	0.006
61.75	0.08	0.37	0.006
62.2	0.3	0.364	0.01
62.65	0.15	0.357	0.01
63.1	0.23	0.351	0.006
63.25	0.08	0.344	0.01
64.01	0.68	0.338	0.006
65.06	0.38	0.331	0.006
65.81	0.23	0.318	0.006
66.11	0.15	0.318	0.006
67.02	0.15	0.591	0.003
67.17	0.08	0.584	0.036
67.32	0.08	0.649	0.039
67.47	0.08	0.656	0.042
67.62	0.08	0.636	0.045
67.77	0.08	0.643	0.029
68.52	0.08	0.292	0.01
68.83	0.15	0.299	0.01
69.28	0.23	0.331	0.016
69.43	0.08	0.331	0.013
69.58	0.08	0.338	0.013
69.88	0.15	0.312	0.016
70.03	0.08	0.273	0.013
70.18	0.08	0.266	0.01
71.08	0.23	0.221	0.003
71.54	0.23	0.214	0.006
71.99	0.23	0.208	0.006
72.44	0.3	0.201	0.006
73.04	0.23	0.195	0.006
73.64	0.45	0.188	0.006
74.4	0.38	0.182	0.01
75.45	0.53	0.175	0.006
76.51	0.6	0.169	0.006
77.11	0.08	0.169	0.003
79.37	0.3	0.156	0.003
79.82	0.15	0.149	0.003
80.12	0.15	0.143	0.006
81.17	0.83	0.136	0.006
82.38	0.45	0.13	0.003
84.34	0.23	0.11	0.006
85.24	0.75	0.104	0.003
86.6	0.6	0.097	0.003
88.4	0.23	0.091	0.003
89.61	0.23	0.065	0.003
90.21	0.15	0.058	0.003
93.98	0.3	0.045	0.003
94.88	0.53	0.039	0.003
95.78	0.3	0.032	0.003
96.54	0.3	0.026	0.003
97.44	0.3	0.019	0.003
98.19	0.15	0.013	0.003
100	0.08	0	0.003
