# mesh name: cyl_tdk
# primitive scorer name: dDep
# iZ, iPHI, iR, value [Gy]
0,0,0,0.003575845831469337
0,0,1,0.003486384906636688
0,0,2,0.003347366184332236
0,0,3,0.003147841543200679
0,0,4,0.002937952143792817
0,0,5,0.002715378341628576
0,0,6,0.002495052080936267
0,0,7,0.002280950776910175
0,0,8,0.002065379752987324
0,0,9,0.001849160526114798
0,0,10,0.001635439327171395
0,0,11,0.001427641860875682
0,0,12,0.001228648680705312
0,0,13,0.001036595411716808
0,0,14,0.000861421274864759
0,0,15,0.0006913626639710631
0,0,16,0.0005304657345721776
0,0,17,0.0003852783648164802
0,0,18,0.0002676371926771799
0,0,19,0.0001772224123110707
0,0,20,0.0001182955575869345
0,0,21,8.103371950813799e-05
0,0,22,5.960762902847898e-05
0,0,23,4.761594540382094e-05
0,0,24,4.011679150383257e-05
# primitive scorer name: eDep
# iZ, iPHI, iR, value [MeV]
0,0,0,35058.09467830278
0,0,1,102543.0216252054
0,0,2,164090.2406640996
0,0,3,216033.1637302382
0,0,4,259236.8584794732
0,0,5,292841.4563224306
0,0,6,318003.9326770161
0,0,7,335441.4258755572
0,0,8,344237.6432811723
0,0,9,344459.1599403778
0,0,10,336715.6133051744
0,0,11,321926.4295298845
0,0,12,301146.1050357601
0,0,13,274399.0285360803
0,0,14,244919.3592305338
0,0,15,210124.7159590909
0,0,16,171625.0982702771
0,0,17,132206.3117296198
0,0,18,97086.24696174727
0,0,19,67763.02326970143
0,0,20,47551.23659911935
0,0,21,34162.03651263328
0,0,22,26298.07044916608
0,0,23,21941.17052005178
0,0,24,19272.22221252225
