# mesh name: cyl_tdk
# primitive scorer name: dDep
# iZ, iPHI, iR, value [Gy]
0,0,0,0.00358567920017034
0,0,1,0.003488625310593472
0,0,2,0.003346516316318704
0,0,3,0.003149640935467161
0,0,4,0.002936822172818325
0,0,5,0.002717875932442118
0,0,6,0.002492331384903977
0,0,7,0.002280152301167922
0,0,8,0.00206548322015679
0,0,9,0.001850396315013507
0,0,10,0.001635558219401962
0,0,11,0.001427473646857679
0,0,12,0.001228953800121652
0,0,13,0.001036617124674627
0,0,14,0.0008612838356730738
0,0,15,0.0006915177228825582
0,0,16,0.0005308141957696047
0,0,17,0.0003850461569863939
0,0,18,0.0002675964485439408
0,0,19,0.0001774557100841199
0,0,20,0.0001181410276440077
0,0,21,8.099313471427721e-05
0,0,22,5.954768549112556e-05
0,0,23,4.771085033212884e-05
0,0,24,4.003601911241306e-05
# primitive scorer name: eDep
# iZ, iPHI, iR, value [MeV]
0,0,0,35154.50240592269
0,0,1,102608.9173302196
0,0,2,164048.579537351
0,0,3,216156.6541914805
0,0,4,259137.1529324716
0,0,5,293110.8103641841
0,0,6,317657.1695596022
0,0,7,335324.0003510313
0,0,8,344254.8881943498
0,0,9,344689.3610505165
0,0,10,336740.0916638501
0,0,11,321888.4980713322
0,0,12,301220.8908758727
0,0,13,274404.7762120364
0,0,14,244880.282509628
0,0,15,210171.8427587188
0,0,16,171737.8382332282
0,0,17,132126.6307935282
0,0,18,97071.46689720039
0,0,19,67852.22735070495
0,0,20,47489.12023543169
0,0,21,34144.92685485102
0,0,22,26271.62418055825
0,0,23,21984.90219853725
0,0,24,19233.41892298297
