# mesh name: cyl_tdk
# primitive scorer name: dDep
# iZ, iPHI, iR, value [Gy]
0,0,0,0.003456509800367887
0,0,1,0.00335386883502335
0,0,2,0.003219927306134205
0,0,3,0.003033064713722978
0,0,4,0.002834491080974963
0,0,5,0.002625657994120389
0,0,6,0.002408533604509616
0,0,7,0.002199402608471256
0,0,8,0.001995907774625442
0,0,9,0.001787219390547763
0,0,10,0.001584190445188336
0,0,11,0.001386385814172113
0,0,12,0.001191792560863512
0,0,13,0.001009100805858252
0,0,14,0.0008382488247012426
0,0,15,0.0006745235510642747
0,0,16,0.000521441372462719
0,0,17,0.0003811747269485456
0,0,18,0.0002651846103240227
0,0,19,0.0001768452976012177
0,0,20,0.0001181890977144277
0,0,21,8.16967141187484e-05
0,0,22,5.935093160122293e-05
0,0,23,4.736725582368049e-05
0,0,24,4.033816806910351e-05
# primitive scorer name: eDep
# iZ, iPHI, iR, value [MeV]
0,0,0,33888.10747132427
0,0,1,98645.40310059905
0,0,2,157843.0973760936
0,0,3,208156.1466500681
0,0,4,250107.737381596
0,0,5,283165.5165739567
0,0,6,306976.8218741753
0,0,7,323448.780446406
0,0,8,332658.7217421581
0,0,9,332920.8477093161
0,0,10,326164.1373545096
0,0,11,312623.387797929
0,0,12,292112.5406744691
0,0,13,267120.8821615722
0,0,14,238330.9665224077
0,0,15,205006.8321017202
0,0,16,168705.3865284774
0,0,17,130798.1692627133
0,0,18,96196.56487525551
0,0,19,67618.82913237918
0,0,20,47508.4429499673
0,0,21,34441.54047996023
0,0,22,26184.81905606244
0,0,23,21826.57570442166
0,0,24,19378.57215224731
