18.83	0.0133428456211
18.93	0.0144866121651
19.03	0.0156303787091
19.13	0.0167741452531
19.23	0.0179179117971
19.33	0.0190616783411
19.43	0.0202054448851
19.53	0.0213492114292
19.63	0.0224929779732
19.73	0.0236367445172
19.83	0.0247805110612
19.93	0.0259242776052
20.03	0.0270680441492
20.13	0.0282118106932
20.23	0.0293555772372
20.33	0.0304993437813
20.43	0.0316431103253
20.53	0.0328536561076
20.63	0.0341510462514
20.73	0.0354484363953
20.83	0.0367458265391
20.93	0.038043216683
21.03	0.0393406068269
21.13	0.0406379969707
21.23	0.0419353871146
21.33	0.0432327772584
21.43	0.0445301674023
21.53	0.0458275575461
21.63	0.04712494769
21.73	0.0484223378338
21.83	0.0497197279777
21.93	0.0510171181215
22.03	0.0523145082654
22.13	0.0536118984092
22.23	0.0549001129292
22.33	0.0561869489518
22.43	0.0574737849743
22.53	0.0587606209968
22.63	0.0600474570193
22.73	0.0613342930418
22.83	0.0626211290643
22.93	0.0639079650868
23.03	0.0651948011094
23.13	0.0664816371319
23.23	0.0677684731544
23.33	0.0690553091769
23.43	0.0703421451994
23.53	0.0716289812219
23.63	0.0729158172444
23.73	0.0742026532669
23.83	0.0754544297806
23.93	0.0766259694317
24.03	0.0777975090829
24.13	0.078969048734
24.23	0.0801405883851
24.33	0.0813121280362
24.43	0.0824836676874
24.53	0.0836552073385
24.63	0.0848267469896
24.73	0.0859982866407
24.83	0.0871698262919
24.93	0.088341365943
25.03	0.0895129055941
25.13	0.0906844452452
25.23	0.0918559848964
25.33	0.0930275245475
25.43	0.0941990641986
25.53	0.095244339023
25.63	0.0962449677209
25.73	0.0972455964187
25.83	0.0982462251166
25.93	0.0992468538144
26.03	0.100247482512
26.13	0.10124811121
26.23	0.102248739908
26.33	0.103249368606
26.43	0.104249997304
26.53	0.105250626001
26.63	0.106251254699
26.73	0.107251883397
26.83	0.108252512095
26.93	0.109253140793
27.03	0.110253769491
27.13	0.11122106984
27.23	0.112029570412
27.33	0.112838070985
27.43	0.113646571557
27.53	0.114455072129
27.63	0.115263572701
27.73	0.116072073273
27.83	0.116880573845
27.93	0.117689074417
28.03	0.11849757499
28.13	0.119306075562
28.23	0.120114576134
28.33	0.120923076706
28.43	0.121731577278
28.53	0.12254007785
28.63	0.123348578423
28.73	0.124157078995
28.83	0.124849074193
28.93	0.125466005527
29.03	0.12608293686
29.13	0.126699868194
29.23	0.127316799527
29.33	0.127933730861
29.43	0.128550662194
29.53	0.129167593528
29.63	0.129784524861
29.73	0.130401456194
29.83	0.131018387528
29.93	0.131635318861
30.03	0.132252250195
30.13	0.132869181528
30.23	0.133486112862
30.33	0.134103044195
30.43	0.134712326767
30.53	0.135150786989
30.63	0.135589247211
30.73	0.136027707433
30.83	0.136466167655
30.93	0.136904627877
31.03	0.137343088099
31.13	0.137781548321
31.23	0.138220008543
31.33	0.138658468765
31.43	0.139096928987
31.53	0.139535389209
31.63	0.139973849431
31.73	0.140412309653
31.83	0.140850769875
31.93	0.141289230097
32.03	0.141727690319
32.13	0.142090190241
32.23	0.142369588295
32.33	0.142648986349
32.43	0.142928384403
32.53	0.143207782457
32.63	0.143487180511
32.73	0.143766578566
32.83	0.14404597662
32.93	0.144325374674
33.03	0.144604772728
33.13	0.144884170782
33.23	0.145163568836
33.33	0.14544296689
33.43	0.145722364945
33.53	0.146001762999
33.63	0.146281161053
33.73	0.146560559107
33.83	0.146714703009
33.93	0.146856797854
34.03	0.1469988927
34.13	0.147140987545
34.23	0.14728308239
34.33	0.147425177235
34.43	0.14756727208
34.53	0.147709366925
34.63	0.14785146177
34.73	0.147993556615
34.83	0.148135651461
34.93	0.148277746306
35.03	0.148419841151
35.13	0.148561935996
35.23	0.148704030841
35.33	0.148846125686
35.43	0.148948123289
35.53	0.148974643731
35.63	0.149001164173
35.73	0.149027684615
35.83	0.149054205057
35.93	0.149080725499
36.03	0.14910724594
36.13	0.149133766382
36.23	0.149160286824
36.33	0.149186807266
36.43	0.149213327708
36.53	0.14923984815
36.63	0.149266368591
36.73	0.149292889033
36.83	0.149319409475
36.93	0.149345929917
37.03	0.149372450359
37.13	0.149324554609
37.23	0.149255868958
37.33	0.149187183306
37.43	0.149118497655
37.53	0.149049812003
37.63	0.148981126352
37.73	0.1489124407
37.83	0.148843755049
37.93	0.148775069398
38.03	0.148706383746
38.13	0.148637698095
38.23	0.148569012443
38.33	0.148500326792
38.43	0.14843164114
38.53	0.148362955489
38.63	0.148294269837
38.73	0.148208957981
38.83	0.148063415344
38.93	0.147917872707
39.03	0.14777233007
39.13	0.147626787433
39.23	0.147481244796
39.33	0.147335702159
39.43	0.147190159522
39.53	0.147044616885
39.63	0.146899074248
39.73	0.146753531611
39.83	0.146607988974
39.93	0.146462446337
40.03	0.1463169037
40.13	0.146171361063
40.23	0.146025818427
40.33	0.14588027579
40.43	0.145695169649
40.53	0.145488855486
40.63	0.145282541323
40.73	0.14507622716
40.83	0.144869912997
40.93	0.144663598834
41.03	0.14445728467
41.13	0.144250970507
41.23	0.144044656344
41.33	0.143838342181
41.43	0.143632028018
41.53	0.143425713855
41.63	0.143219399692
41.73	0.143013085529
41.83	0.142806771366
41.93	0.142600457203
42.03	0.14239011878
42.13	0.142136854915
42.23	0.14188359105
42.33	0.141630327186
42.43	0.141377063321
42.53	0.141123799456
42.63	0.140870535592
42.73	0.140617271727
42.83	0.140364007862
42.93	0.140110743998
43.03	0.139857480133
43.13	0.139604216268
43.23	0.139350952404
43.33	0.139097688539
43.43	0.138844424674
43.53	0.13859116081
43.63	0.138337896945
43.73	0.13806628543
43.83	0.137777765295
43.93	0.137489245161
44.03	0.137200725027
44.13	0.136912204892
44.23	0.136623684758
44.33	0.136335164623
44.43	0.136046644489
44.53	0.135758124355
44.63	0.13546960422
44.73	0.135181084086
44.83	0.134892563952
44.93	0.134604043817
45.03	0.134315523683
45.13	0.134027003548
45.23	0.133738483414
45.33	0.13344996328
45.43	0.133137098254
45.53	0.13282308881
45.63	0.132509079365
45.73	0.132195069921
45.83	0.131881060477
45.93	0.131567051033
46.03	0.131253041589
46.13	0.130939032145
46.23	0.130625022701
46.33	0.130311013257
46.43	0.129997003813
46.53	0.129682994369
46.63	0.129368984925
46.73	0.129054975481
46.83	0.128740966037
46.93	0.128426956593
47.03	0.128106156119
47.13	0.127774724661
47.23	0.127443293203
47.33	0.127111861744
47.43	0.126780430286
47.53	0.126448998828
47.63	0.12611756737
47.73	0.125786135912
47.83	0.125454704454
47.93	0.125123272996
48.03	0.124791841538
48.13	0.12446041008
48.23	0.124128978622
48.33	0.123797547164
48.43	0.123466115706
48.53	0.123134684247
48.63	0.122803252789
48.73	0.122462894426
48.83	0.122120635781
48.93	0.121778377136
49.03	0.121436118492
49.13	0.121093859847
49.23	0.120751601202
49.33	0.120409342557
49.43	0.120067083912
49.53	0.119724825267
49.63	0.119382566622
49.73	0.119040307977
49.83	0.118698049332
49.93	0.118355790687
50.03	0.118013532043
50.13	0.117671273398
50.23	0.117329014753
50.33	0.116985332994
50.43	0.116637583593
50.53	0.116289834192
50.63	0.115942084791
50.73	0.115594335391
50.83	0.11524658599
50.93	0.114898836589
51.03	0.114551087188
51.13	0.114203337788
51.23	0.113855588387
51.33	0.113507838986
51.43	0.113160089585
51.53	0.112812340185
51.63	0.112464590784
51.73	0.112116841383
51.83	0.111769091983
51.93	0.111421342582
52.03	0.111072747731
52.13	0.110723779887
52.23	0.110374812044
52.33	0.1100258442
52.43	0.109676876357
52.53	0.109327908513
52.63	0.10897894067
52.73	0.108629972826
52.83	0.108281004983
52.93	0.107932037139
53.03	0.107583069296
53.13	0.107234101452
53.23	0.106885133609
53.33	0.106536165765
53.43	0.106187197922
53.53	0.105838230078
53.63	0.10548954017
53.73	0.105142734047
53.83	0.104795927925
53.93	0.104449121802
54.03	0.104102315679
54.13	0.103755509556
54.23	0.103408703433
54.33	0.10306189731
54.43	0.102715091187
54.53	0.102368285064
54.63	0.102021478941
54.73	0.101674672818
54.83	0.101327866695
54.93	0.100981060573
55.03	0.10063425445
55.13	0.100287448327
55.23	0.0999406422038
55.33	0.100785441577
55.43	0.100440257261
55.53	0.100096672188
55.63	0.0997569160195
55.73	0.099427478004
55.83	0.0991175458739
55.93	0.0988582918142
56.03	0.0986877370631
56.13	0.0986943499088
56.23	0.099024448994
56.33	0.0998287192719
56.43	0.10154434904
56.53	0.104351183988
56.63	0.108821596439
56.73	0.115234335467
56.83	0.123727914703
56.93	0.134461681154
57.03	0.146672590794
57.13	0.159600094443
57.23	0.171904406997
57.33	0.18207561261
57.43	0.188604453255
57.53	0.190991568507
57.63	0.187923628966
57.73	0.180725874565
57.83	0.169866070821
57.93	0.156886869932
58.03	0.143282902695
58.13	0.130390039432
58.23	0.11896744721
58.33	0.109795768237
58.43	0.102692792086
58.53	0.104581204592
58.63	0.11281888736
58.73	0.124375449788
58.83	0.139685861954
58.93	0.159036194894
59.03	0.180528390496
59.13	0.202320626272
59.23	0.222180431478
59.33	0.237776041645
59.43	0.246993511966
59.53	0.247968174291
59.63	0.239437392123
59.73	0.224163749301
59.83	0.204235694716
59.93	0.181985665568
60.03	0.159666820817
60.13	0.139177316258
60.23	0.12205584658
60.33	0.109174576261
60.43	0.0997072619902
60.53	0.093094897557
60.63	0.0887056825227
60.73	0.0859244833529
60.83	0.0842181894998
60.93	0.0831985411963
61.03	0.0825436877052
61.13	0.0820533409945
61.23	0.081651819085
61.33	0.081294584032
61.43	0.0809576013233
61.53	0.0806290896892
61.63	0.0803039086987
61.73	0.0799797573683
61.83	0.079655935758
61.93	0.0793368473575
62.03	0.0790221568977
62.13	0.0787089378399
62.23	0.0783957222954
62.33	0.0780825076266
62.43	0.0777692931215
62.53	0.0774560786579
62.63	0.077142864206
62.73	0.0768296497567
62.83	0.076516435308
62.93	0.0762032208593
63.03	0.0758900064107
63.13	0.0755767919621
63.23	0.0752635775135
63.33	0.0749503630648
63.43	0.0746371486162
63.53	0.0743252918014
63.63	0.0740187701326
63.73	0.0737164828382
63.83	0.0734141955438
63.93	0.0717029881355
64.03	0.071406526139
64.13	0.0711100641426
64.23	0.0708136021461
64.33	0.0705171401496
64.43	0.0702206781532
64.53	0.0699242161567
64.63	0.0696277541603
64.73	0.0693312921638
64.83	0.0690348301674
64.93	0.0687383681709
65.03	0.0684419061744
65.13	0.068145444178
65.23	0.0678508676503
65.33	0.0675654042216
65.43	0.0672799407929
65.53	0.0669944773642
65.63	0.0667090139356
65.73	0.0686982137071
65.83	0.0685054354712
65.93	0.0684103005786
66.03	0.0684705097633
66.13	0.0688295810327
66.23	0.0696116343997
66.33	0.0710133208206
66.43	0.073348975815
66.53	0.0767635877068
66.63	0.0815572698356
66.73	0.0878168783254
66.83	0.0953859626295
66.93	0.104100427951
67.03	0.113257194919
67.13	0.122140401602
67.23	0.129691229174
67.33	0.135193820595
67.43	0.137810459022
67.53	0.137141040176
67.63	0.133451961832
67.73	0.126852650612
67.83	0.118365222091
67.93	0.108820438146
68.03	0.099129831213
68.13	0.090043863387
68.23	0.0820990433099
68.33	0.0756041717136
68.43	0.0704777082018
68.53	0.0667372314807
68.63	0.064063264835
68.73	0.0684845022554
68.83	0.069236384996
68.93	0.0697594029275
69.03	0.0699851212192
69.13	0.0698930230027
69.23	0.0694709024159
69.33	0.0687124197026
69.43	0.0676725433824
69.53	0.0664035149132
69.63	0.0649637215747
69.73	0.0634344263697
69.83	0.0618836186087
69.93	0.0603751086905
70.03	0.0589573207655
70.13	0.0576622683336
70.23	0.0565201176584
70.33	0.0555333606158
70.43	0.0546882604174
70.53	0.0539763648904
70.63	0.053377721845
70.73	0.0528833576264
70.83	0.0526310287823
70.93	0.0523786999382
71.03	0.0521263710941
71.13	0.0518740422501
71.23	0.051621713406
71.33	0.0513693845619
71.43	0.0511170557178
71.53	0.0508647268738
71.63	0.0506123980297
71.73	0.0503600691856
71.83	0.0501077403415
71.93	0.0498651793759
72.03	0.0496235820576
72.13	0.0493819847392
72.23	0.0491403874208
72.33	0.0488987901025
72.43	0.0486571927841
72.53	0.0484155954657
72.63	0.0481739981473
72.73	0.047932400829
72.83	0.0476908035106
72.93	0.0474492061922
73.03	0.0472076088739
73.13	0.0469660115555
73.23	0.0467244142371
73.33	0.0464828169188
73.43	0.0462412196004
73.53	0.0460032281446
73.63	0.0457720856943
73.73	0.0455409432439
73.83	0.0453098007936
73.93	0.0450786583432
74.03	0.0448475158928
74.13	0.0446163734425
74.23	0.0443852309921
74.33	0.0441540885417
74.43	0.0439229460914
74.53	0.043691803641
74.63	0.0434606611906
74.73	0.0432295187403
74.83	0.0429983762899
74.93	0.0427672338396
75.03	0.0425360913892
75.13	0.0423049489388
75.23	0.0420817061684
75.33	0.0418606968153
75.43	0.0416396874622
75.53	0.0414186781091
75.63	0.041197668756
75.73	0.040976659403
75.83	0.0407556500499
75.93	0.0405346406968
76.03	0.0403136313437
76.13	0.0400926219906
76.23	0.0398716126375
76.33	0.0396506032845
76.43	0.0394295939314
76.53	0.0392085845783
76.63	0.0389875752252
76.73	0.0387665658721
76.83	0.0385476521186
76.93	0.0383364222299
77.03	0.0381251923412
77.13	0.0379139624526
77.23	0.0377027325639
77.33	0.0374915026753
77.43	0.0372802727866
77.53	0.0370690428979
77.63	0.0368578130093
77.73	0.0366465831206
77.83	0.036435353232
77.93	0.0362241233433
78.03	0.0360128934547
78.13	0.035801663566
78.23	0.0355904336773
78.33	0.0353792037887
78.43	0.0351679739
78.53	0.0349628474346
78.63	0.0347610221918
78.73	0.034559196949
78.83	0.0343573717062
78.93	0.0341555464634
79.03	0.0339537212206
79.13	0.0337518959778
79.23	0.033550070735
79.33	0.0333482454923
79.43	0.0331464202495
79.53	0.0329445950067
79.63	0.0327427697639
79.73	0.0325409445211
79.83	0.0323391192783
79.93	0.0321372940355
80.03	0.0319354687927
80.13	0.0317343980499
80.23	0.0315415900014
80.33	0.031348781953
80.43	0.0311559739045
80.53	0.030963165856
80.63	0.0307703578076
80.73	0.0305775497591
80.83	0.0303847417107
80.93	0.0301919336622
81.03	0.0299991256138
81.13	0.0298063175653
81.23	0.0296135095169
81.33	0.0294207014684
81.43	0.02922789342
81.53	0.0290350853715
81.63	0.0288422773231
81.73	0.0286494692746
81.83	0.0284611315817
81.93	0.0282769474476
82.03	0.0280927633134
82.13	0.0279085791793
82.23	0.0277243950451
82.33	0.027540210911
82.43	0.0273560267768
82.53	0.0271718426426
82.63	0.0269876585085
82.73	0.0268034743743
82.83	0.0266192902402
82.93	0.026435106106
83.03	0.0262509219719
83.13	0.0260667378377
83.23	0.0258825537036
83.33	0.0256983695694
83.43	0.0255141854352
83.53	0.0253378451608
83.63	0.0251618912007
83.73	0.0249859372406
83.83	0.0248099832804
83.93	0.0246340293203
84.03	0.0244580753602
84.13	0.0242821214
84.23	0.0241061674399
84.33	0.0239302134798
84.43	0.0237542595196
84.53	0.0235783055595
84.63	0.0234023515994
84.73	0.0232263976392
84.83	0.0230504436791
84.93	0.022874489719
85.03	0.0226985357589
85.13	0.0225256218626
85.23	0.0223575080671
85.33	0.0221893942716
85.43	0.0220212804762
85.53	0.0218531666807
85.63	0.0216850528853
85.73	0.0215169390898
85.83	0.0213488252943
85.93	0.0211807114989
86.03	0.0210125977034
86.13	0.0208444839079
86.23	0.0206763701125
86.33	0.020508256317
86.43	0.0203401425215
86.53	0.0201720287261
86.63	0.0200039149306
86.73	0.0198358011351
86.83	0.0196738204363
86.93	0.0195131637557
87.03	0.0193525070752
87.13	0.0191918503947
87.23	0.0190311937142
87.33	0.0188705370337
87.43	0.0187098803532
87.53	0.0185492236727
87.63	0.0183885669921
87.73	0.0182279103116
87.83	0.0180672536311
87.93	0.0179065969506
88.03	0.0177459402701
88.13	0.0175852835896
88.23	0.0174246269091
88.33	0.0172639702285
88.43	0.0171051350115
88.53	0.0169515617999
88.63	0.0167979885883
88.73	0.0166444153767
88.83	0.016490842165
88.93	0.0163372689534
89.03	0.0161836957418
89.13	0.0160301225302
89.23	0.0158765493186
89.33	0.015722976107
89.43	0.0155694028954
89.53	0.0154158296838
89.63	0.0152622564722
89.73	0.0151086832606
89.83	0.014955110049
89.93	0.0148015368374
90.03	0.0146479636258
90.13	0.0144990402716
90.23	0.0143521880929
90.33	0.0142053359141
90.43	0.0140584837354
90.53	0.0139116315566
90.63	0.0137647793779
90.73	0.0136179271991
90.83	0.0134710750204
90.93	0.0133242228416
91.03	0.0131773706629
91.13	0.0130305184841
91.23	0.0128836663054
91.33	0.0127368141267
91.43	0.0125899619479
91.53	0.0124431097692
91.63	0.0122962575904
91.73	0.0121502115504
91.83	0.0120097304684
91.93	0.0118692493864
92.03	0.0117287683044
92.13	0.0115882872224
92.23	0.0114478061404
92.33	0.0113073250584
92.43	0.0111668439764
92.53	0.0110263628944
92.63	0.0108858818123
92.73	0.0107454007303
92.83	0.0106049196483
92.93	0.0104644385663
93.03	0.0103239574843
93.13	0.0101834764023
93.23	0.0100429953203
93.33	0.00990251423827
93.43	0.00976541988466
93.53	0.00963097333687
93.63	0.00949652678909
93.73	0.00936208024131
93.83	0.00922763369353
93.93	0.00909318714574
94.03	0.00895874059796
94.13	0.00882429405018
94.23	0.0086898475024
94.33	0.00855540095461
94.43	0.00842095440683
94.53	0.00828650785905
94.63	0.00815206131127
94.73	0.00801761476348
94.83	0.0078831682157
94.93	0.00774872166792
95.03	0.00761427512014
95.13	0.00748551714374
95.23	0.00735678248117
95.33	0.00722804781859
95.43	0.00709931315601
95.53	0.00697057849343
95.63	0.00684184383086
95.73	0.00671310916828
95.83	0.0065843745057
95.93	0.00645563984312
96.03	0.00632690518055
96.13	0.00619817051797
96.23	0.00606943585539
96.33	0.00594070119281
96.43	0.00581196653024
96.53	0.00568323186766
96.63	0.00555449720508
96.73	0.00542808932286
96.83	0.00530475808384
96.93	0.00518142684482
97.03	0.00505809560581
97.13	0.00493476436679
97.23	0.00481143312778
97.33	0.00468810188876
97.43	0.00456477064975
97.53	0.00444143941073
97.63	0.00431810817171
97.73	0.0041947769327
97.83	0.00407144569368
97.93	0.00394811445467
98.03	0.00382478321565
98.13	0.00370145197664
98.23	0.00357812073762
98.33	0.0034547894986
98.43	0.0033358792928
98.53	0.0032176572667
98.63	0.00309943524059
98.73	0.00298121321449
98.83	0.00286299118838
98.93	0.00274476916228
99.03	0.00262654713617
99.13	0.00250832511007
99.23	0.00239010308396
99.33	0.00227188105786
99.43	0.00215365903175
99.53	0.00203543700565
99.63	0.00191721497954
99.73	0.00179899295344
99.83	0.00168077092733
99.93	0.00156254890123
