0.0	0.0
0.1	6.88783785757e-05
0.2	0.000137756757151
0.3	0.000206635135727
0.4	0.000275513514303
0.5	0.000344391892879
0.6	0.000413270271454
0.7	0.00048214865003
0.8	0.000551027028606
0.9	0.000619905407181
1.0	0.000688783785757
1.1	0.000757662164333
1.2	0.000826540542908
1.3	0.000895418921484
1.4	0.00096429730006
1.5	0.00103317567864
1.6	0.00110205405721
1.7	0.00117093243579
1.8	0.00123981081436
1.9	0.00130868919294
2.0	0.00137756757151
2.1	0.00164480032612
2.2	0.00204882920212
2.3	0.00245285807813
2.4	0.00285688695413
2.5	0.00326091583014
2.6	0.00366494470614
2.7	0.00406897358215
2.8	0.00447300245815
2.9	0.00487703133416
3.0	0.00528106021016
3.1	0.00568508908617
3.2	0.00608911796217
3.3	0.00649314683818
3.4	0.00689717571418
3.5	0.00730120459019
3.6	0.00770523346619
3.7	0.0081092623422
3.8	0.0085132912182
3.9	0.00891732009421
4.0	0.00932134897021
4.1	0.010108740773
4.2	0.0125999678059
4.3	0.0150911948388
4.4	0.0175824218717
4.5	0.0200736489045
4.6	0.0225648759374
4.7	0.0250561029703
4.8	0.0275473300032
4.9	0.0300385570361
5.0	0.032529784069
5.1	0.0350210111019
5.2	0.0375122381347
5.3	0.0400034651676
5.4	0.0424946922005
5.5	0.0449859192334
5.6	0.0474771462663
5.7	0.0499683732992
5.8	0.0524596003321
5.9	0.0549508273649
6.0	0.0574420543978
6.1	0.0629064166793
6.2	0.0684567302534
6.3	0.0746470761696
6.4	0.0814827005946
6.5	0.0894639625827
6.6	0.0981519690221
6.7	0.108218334124
6.8	0.120282970972
6.9	0.133609368269
7.0	0.150703196555
7.1	0.170595892355
7.2	0.193427984582
7.3	0.223067389808
7.4	0.256401388807
7.5	0.296846877103
7.6	0.345702929552
7.7	0.399657975419
7.8	0.467151185184
7.9	0.542639421671
8.0	0.626874354059
8.1	0.727015247188
8.2	0.834844866038
8.3	0.957092588484
8.4	1.09078431516
8.5	1.23104955285
8.6	1.38436783922
8.7	1.54195154953
8.8	1.70439672554
8.9	1.86896822375
9.0	2.03239385351
9.1	2.1916865858
9.2	2.34142517423
9.3	2.48489327551
9.4	2.60649626085
9.5	2.71389599279
9.6	2.8044293613
9.7	2.86327401401
9.8	2.90649953195
9.9	2.91947264745
10.0	2.90576506164
10.1	2.87588229211
10.2	2.80963230804
10.3	2.72874075097
10.4	2.62973108301
10.5	2.50887975622
10.6	2.37982640355
10.7	2.23770248396
10.8	2.09023195304
10.9	1.93976633453
11.0	1.78934382848
11.1	1.64206881551
11.2	1.49885318613
11.3	1.36622757607
11.4	1.23949019816
11.5	1.12525627893
11.6	1.02242321996
11.7	0.926790633302
11.8	0.848916195554
11.9	0.778401360931
12.0	0.717781495104
12.1	0.66985960483
12.2	0.627525308159
12.3	0.595273736769
12.4	0.569585832843
12.5	0.548067476286
12.6	0.534759215123
12.7	0.524079953676
12.8	0.517086446734
12.9	0.513841804168
13.0	0.512141094345
13.1	0.512997369474
13.2	0.515205644201
13.3	0.518289535064
13.4	0.522827078404
13.5	0.527746461113
13.6	0.533224211945
13.7	0.539172598393
13.8	0.545307135338
13.9	0.551723973723
14.0	0.55530932859
14.1	0.562162810443
14.2	0.569016292296
14.3	0.575755303415
14.4	0.581807490128
14.5	0.587859676841
14.6	0.593911863554
14.7	0.599964050267
14.8	0.60601623698
14.9	0.612068423693
15.0	0.618120610405
15.1	0.624172797118
15.2	0.630224983831
15.3	0.636277170544
15.4	0.642329357257
15.5	0.64838154397
15.6	0.654433730683
15.7	0.660485917396
15.8	0.666538104109
15.9	0.672590290822
16.0	0.678642477535
16.1	0.684694664248
16.2	0.690746850961
16.3	0.696799037674
16.4	0.702042227772
16.5	0.706993280203
16.6	0.711944332635
16.7	0.716895385066
16.8	0.721846437497
16.9	0.726797489929
17.0	0.73174854236
17.1	0.736699594792
17.2	0.741650647223
17.3	0.746601699654
17.4	0.751552752086
17.5	0.756503804517
17.6	0.761454856948
17.7	0.76640590938
17.8	0.771356961811
17.9	0.776308014242
18.0	0.781259066674
18.1	0.786210119105
18.2	0.791161171537
18.3	0.796112223968
18.4	0.800671948809
18.5	0.804424560495
18.6	0.808177172181
18.7	0.811929783867
18.8	0.815682395553
18.9	0.819435007239
19.0	0.823187618925
19.1	0.826940230611
19.2	0.830692842297
19.3	0.834445453983
19.4	0.838198065669
19.5	0.841950677355
19.6	0.845703289042
19.7	0.849455900728
19.8	0.853208512414
19.9	0.8569611241
20.0	0.860713735786
20.1	0.864466347472
20.2	0.868218959158
20.3	0.871971570844
20.4	0.87572418253
20.5	0.878407509814
20.6	0.880995789596
20.7	0.883584069378
20.8	0.886172349159
20.9	0.888760628941
21.0	0.891348908723
21.1	0.893937188504
21.2	0.896525468286
21.3	0.899113748068
21.4	0.90170202785
21.5	0.904290307631
21.6	0.906878587413
21.7	0.909466867195
21.8	0.912055146977
21.9	0.914643426758
22.0	0.91723170654
22.1	0.919819986322
22.2	0.922408266104
22.3	0.924996545885
22.4	0.927584825667
22.5	0.929634661951
22.6	0.931167592477
22.7	0.932700523004
22.8	0.93423345353
22.9	0.935766384056
23.0	0.937299314582
23.1	0.938832245108
23.2	0.940365175634
23.3	0.941898106161
23.4	0.943431036687
23.5	0.944963967213
23.6	0.946496897739
23.7	0.948029828265
23.8	0.949562758791
23.9	0.951095689317
24.0	0.952628619844
24.1	0.95416155037
24.2	0.955694480896
24.3	0.957227411422
24.4	0.958760341948
24.5	0.960200295818
24.6	0.960822055114
24.7	0.961443814409
24.8	0.962065573705
24.9	0.962687333
25.0	0.963309092296
25.1	0.963930851591
25.2	0.964552610887
25.3	0.965174370182
25.4	0.965796129478
25.5	0.966417888774
25.6	0.967039648069
25.7	0.967661407365
25.8	0.96828316666
25.9	0.968904925956
26.0	0.969526685251
26.1	0.970148444547
26.2	0.970770203842
26.3	0.971391963138
26.4	0.972013722433
26.5	0.972635481729
26.6	0.972731739076
26.7	0.97259615733
26.8	0.972460575583
26.9	0.972324993836
27.0	0.972189412089
27.1	0.972053830342
27.2	0.971918248595
27.3	0.971782666848
27.4	0.971647085101
27.5	0.971511503355
27.6	0.971375921608
27.7	0.971240339861
27.8	0.971104758114
27.9	0.970969176367
28.0	0.97083359462
28.1	0.970698012873
28.2	0.970562431126
28.3	0.970426849379
28.4	0.970291267633
28.5	0.970155685886
28.6	0.969846100733
28.7	0.969101507067
28.8	0.968356913401
28.9	0.967612319734
29.0	0.966867726068
29.1	0.966123132402
29.2	0.965378538735
29.3	0.964633945069
29.4	0.963889351403
29.5	0.963144757737
29.6	0.96240016407
29.7	0.961655570404
29.8	0.960910976738
29.9	0.960166383071
30.0	0.959421789405
30.1	0.958677195739
30.2	0.957932602072
30.3	0.957188008406
30.4	0.95644341474
30.5	0.955698821074
30.6	0.954954227407
30.7	0.953793442697
30.8	0.952574584817
30.9	0.951355726938
31.0	0.950136869058
31.1	0.948918011178
31.2	0.947699153299
31.3	0.946480295419
31.4	0.94526143754
31.5	0.94404257966
31.6	0.942823721781
31.7	0.941604863901
31.8	0.940386006021
31.9	0.939167148142
32.0	0.937948290262
32.1	0.936729432383
32.2	0.935510574503
32.3	0.934291716624
32.4	0.933072858744
32.5	0.931854000864
32.6	0.930635142985
32.7	0.92924888582
32.8	0.927673394681
32.9	0.926097903542
33.0	0.924522412403
33.1	0.922946921264
33.2	0.921371430125
33.3	0.919795938986
33.4	0.918220447847
33.5	0.916644956708
33.6	0.915069465569
33.7	0.91349397443
33.8	0.911918483291
33.9	0.910342992152
34.0	0.908767501013
34.1	0.907192009874
34.2	0.905616518735
34.3	0.904041027596
34.4	0.902465536457
34.5	0.900890045318
34.6	0.899314554179
34.7	0.897723335032
34.8	0.89589095311
34.9	0.894058571188
35.0	0.892226189266
35.1	0.890393807345
35.2	0.888561425423
35.3	0.886729043501
35.4	0.884896661579
35.5	0.883064279657
35.6	0.881231897735
35.7	0.879399515813
35.8	0.877567133891
35.9	0.875734751969
36.0	0.873902370047
36.1	0.872069988125
36.2	0.870237606203
36.3	0.868405224281
36.4	0.866572842359
36.5	0.864740460437
36.6	0.862908078515
36.7	0.861075696593
36.8	0.859129526737
36.9	0.857122907041
37.0	0.855116287345
37.1	0.853109667649
37.2	0.851103047953
37.3	0.849096428257
37.4	0.847089808561
37.5	0.845083188865
37.6	0.843076569169
37.7	0.841069949472
37.8	0.839063329776
37.9	0.83705671008
38.0	0.835050090384
38.1	0.833043470688
38.2	0.831036850992
38.3	0.829030231296
38.4	0.8270236116
38.5	0.825016991904
38.6	0.823010372208
38.7	0.821003752512
38.8	0.81897091121
38.9	0.816857219955
39.0	0.814743528701
39.1	0.812629837447
39.2	0.810516146193
39.3	0.808402454938
39.4	0.806288763684
39.5	0.80417507243
39.6	0.802061381175
39.7	0.799947689921
39.8	0.797833998667
39.9	0.795720307413
40.0	0.793606616158
40.1	0.791492924904
40.2	0.78937923365
40.3	0.787265542396
40.4	0.785151851141
40.5	0.783038159887
40.6	0.780924468633
40.7	0.778810777378
40.8	0.776697086124
40.9	0.774538662943
41.0	0.772371511581
41.1	0.770204360219
41.2	0.768037208857
41.3	0.765870057495
41.4	0.763702906133
41.5	0.761535754771
41.6	0.759368603409
41.7	0.757201452047
41.8	0.755034300685
41.9	0.752867149323
42.0	0.750699997961
42.1	0.748532846599
42.2	0.746365695237
42.3	0.744198543875
42.4	0.742031392513
42.5	0.739864241151
42.6	0.737697089789
42.7	0.735529938427
42.8	0.733362787066
42.9	0.731190740498
43.0	0.729012166991
43.1	0.726833593484
43.2	0.724655019977
43.3	0.72247644647
43.4	0.720297872963
43.5	0.718119299455
43.6	0.715940725948
43.7	0.713762152441
43.8	0.711583578934
43.9	0.709405005427
44.0	0.70722643192
44.1	0.705047858412
44.2	0.702869284905
44.3	0.700690711398
44.4	0.698512137891
44.5	0.696333564384
44.6	0.694154990877
44.7	0.691976417369
44.8	0.689797843862
44.9	0.68761969725
45.0	0.685462041592
45.1	0.683304385933
45.2	0.681146730275
45.3	0.678989074617
45.4	0.676831418958
45.5	0.6746737633
45.6	0.672516107642
45.7	0.670358451984
45.8	0.668200796325
45.9	0.666043140667
46.0	0.663885485009
46.1	0.66172782935
46.2	0.659570173692
46.3	0.657412518034
46.4	0.655254862375
46.5	0.653097206717
46.6	0.650939551059
46.7	0.648781895401
46.8	0.646624239742
46.9	0.644466584084
47.0	0.6423366343
47.1	0.64022423157
47.2	0.638111828839
47.3	0.635999426109
47.4	0.633887023378
47.5	0.631774620648
47.6	0.629662217918
47.7	0.627549815187
47.8	0.625437412457
47.9	0.623325009727
48.0	0.621212606996
48.1	0.619100204266
48.2	0.616987801536
48.3	0.614875398805
48.4	0.612762996075
48.5	0.610650593345
48.6	0.608538190614
48.7	0.606425787884
48.8	0.604313385154
48.9	0.602200982423
49.0	0.600101449978
49.1	0.598052111645
49.2	0.596002773311
49.3	0.593953434978
49.4	0.591904096645
49.5	0.589854758311
49.6	0.587805419978
49.7	0.585756081645
49.8	0.583706743311
49.9	0.581657404978
50.0	0.579608066645
50.1	0.577558728311
50.2	0.575509389978
50.3	0.573460051645
50.4	0.571410713311
50.5	0.569361374978
50.6	0.567312036645
50.7	0.565262698311
50.8	0.563213359978
50.9	0.561164021645
51.0	0.559114683311
51.1	0.557125532348
51.2	0.555151814044
51.3	0.553178095739
51.4	0.551204377435
51.5	0.54923065913
51.6	0.547256940826
51.7	0.545283222522
51.8	0.543309504217
51.9	0.541335785913
52.0	0.539362067608
52.1	0.537388349304
52.2	0.535414631
52.3	0.533440912695
52.4	0.531467194391
52.5	0.529493476086
52.6	0.527519757782
52.7	0.525546039478
52.8	0.523572321173
52.9	0.521598602869
53.0	0.519624884564
53.1	0.517683732722
53.2	0.51579400161
53.3	0.513904270497
53.4	0.512014539385
53.5	0.510124808272
53.6	0.50823507716
53.7	0.506345346047
53.8	0.504455614935
53.9	0.502565883823
54.0	0.50067615271
54.1	0.498786421598
54.2	0.496896690485
54.3	0.495006959373
54.4	0.49311722826
54.5	0.491227497148
54.6	0.489337766036
54.7	0.487448034923
54.8	0.485558303811
54.9	0.483668572698
55.0	0.481778841586
55.1	0.479889110473
55.2	0.478086615076
55.3	0.47628593709
55.4	0.474485259104
55.5	0.472684581117
55.6	0.470883903131
55.7	0.469083225144
55.8	0.467282547158
55.9	0.465481869172
56.0	0.463681191185
56.1	0.461880513199
56.2	0.460079835213
56.3	0.458279157226
56.4	0.45647847924
56.5	0.454677801254
56.6	0.452877123267
56.7	0.451076445281
56.8	0.450225048843
56.9	0.470867129052
57.0	0.505326353927
57.1	0.558323570559
57.2	0.630713954175
57.3	0.720916232789
57.4	0.823006912378
57.5	0.923771255272
57.6	1.0086230715
57.7	1.06345329828
57.8	1.07388163941
57.9	1.0411196357
58.0	0.970916704943
58.1	0.874353003641
58.2	0.768012174389
58.3	0.666384864943
58.4	0.578780231654
58.5	0.511440161552
58.6	0.463354069748
58.7	0.431205690801
58.8	0.414779284199
58.9	0.41307015394
59.0	0.411361023681
59.1	0.410638828195
59.2	0.425489318704
59.3	0.456750055958
59.4	0.518561517689
59.5	0.617740857832
59.6	0.768060659818
59.7	0.958093948874
59.8	1.16902238534
59.9	1.35958823045
60.0	1.49018846173
60.1	1.51735866153
60.2	1.44599806348
60.3	1.28130790027
60.4	1.07455752257
60.5	0.864650641381
60.6	0.686427116026
60.7	0.552760754131
60.8	0.467298530244
60.9	0.415232445808
61.0	0.389039674913
61.1	0.377233577046
61.2	0.375616512976
61.3	0.374068231206
61.4	0.37254225721
61.5	0.371016283213
61.6	0.369490309217
61.7	0.36796433522
61.8	0.366438361223
61.9	0.364912387227
62.0	0.36338641323
62.1	0.361860439234
62.2	0.360334465237
62.3	0.35880849124
62.4	0.357282517244
62.5	0.355756543247
62.6	0.354230569251
62.7	0.352704595254
62.8	0.351178621257
62.9	0.349652647261
63.0	0.348126673264
63.1	0.346600699268
63.2	0.345074725271
63.3	0.343579630971
63.4	0.34214266316
63.5	0.340705695348
63.6	0.339268727536
63.7	0.337831759725
63.8	0.336394791913
63.9	0.334957824102
64.0	0.33352085629
64.1	0.332083888478
64.2	0.330646920667
64.3	0.329209952855
64.4	0.327772985044
64.5	0.326336017232
64.6	0.32489904942
64.7	0.323462081609
64.8	0.322025113797
64.9	0.320588145986
65.0	0.319683689363
65.1	0.318244323938
65.2	0.316804958524
65.3	0.315379459201
65.4	0.314007213161
65.5	0.312654116408
65.6	0.311301028458
65.7	0.309947975302
65.8	0.308595048843
65.9	0.307242782739
66.0	0.305892620412
66.1	0.304548743131
66.2	0.30322685815
66.3	0.301968296409
66.4	0.300858964484
66.5	0.300100553812
66.6	0.300264446824
66.7	0.302073687495
66.8	0.306778311862
66.9	0.317118968078
67.0	0.335503666796
67.1	0.364108748689
67.2	0.405373181668
67.3	0.459821141456
67.4	0.52245682416
67.5	0.586923758101
67.6	0.641943039808
67.7	0.678275582827
67.8	0.689561820327
67.9	0.671111689811
68.0	0.626525819329
68.1	0.566048321453
68.2	0.498864151665
68.3	0.435157591264
68.4	0.380996713922
68.5	0.338848293004
68.6	0.309885644085
68.7	0.291194336953
68.8	0.268756893598
68.9	0.267499182175
69.0	0.266230972577
69.1	0.26496276298
69.2	0.263694553382
69.3	0.262426343785
69.4	0.261171547152
69.5	0.259978653891
69.6	0.258831337791
69.7	0.25913279533
69.8	0.276085075994
69.9	0.329014534354
70.0	0.338480086188
70.1	0.28144021986
70.2	0.254479067833
70.3	0.250549808427
70.4	0.24927549984
70.5	0.248085239305
70.6	0.246895914615
70.7	0.245706591352
70.8	0.244517268092
70.9	0.243327944831
71.0	0.242129163527
71.1	0.240939886723
71.2	0.239750609918
71.3	0.238561333113
71.4	0.237372056308
71.5	0.236236256564
71.6	0.235121847644
71.7	0.234007438724
71.8	0.232893029804
71.9	0.231778620884
72.0	0.230664211965
72.1	0.229549803045
72.2	0.228435394125
72.3	0.227320985205
72.4	0.226206576285
72.5	0.225092167366
72.6	0.223977758446
72.7	0.222863349526
72.8	0.221748940606
72.9	0.220634531686
73.0	0.219520122767
73.1	0.218405713847
73.2	0.217291304927
73.3	0.216176896007
73.4	0.215062487088
73.5	0.213969737473
73.6	0.212926082285
73.7	0.211882427097
73.8	0.210838771908
73.9	0.20979511672
74.0	0.208751461531
74.1	0.207707806343
74.2	0.206664151155
74.3	0.205620495966
74.4	0.204576840778
74.5	0.20353318559
74.6	0.202489530401
74.7	0.201445875213
74.8	0.200402220025
74.9	0.199358564836
75.0	0.198314909648
75.1	0.19727125446
75.2	0.196227599271
75.3	0.195183944083
75.4	0.194140288895
75.5	0.193096633706
75.6	0.192112808089
75.7	0.191135781287
75.8	0.190158754485
75.9	0.189181727684
76.0	0.188204700882
76.1	0.18722767408
76.2	0.186250647278
76.3	0.185273620476
76.4	0.184296593674
76.5	0.183319566872
76.6	0.18234254007
76.7	0.181365513268
76.8	0.180388486466
76.9	0.179411459664
77.0	0.178434432863
77.1	0.177457406061
77.2	0.176480379259
77.3	0.175503352457
77.4	0.174526325655
77.5	0.173549298853
77.6	0.172602912444
77.7	0.171688443112
77.8	0.17077397378
77.9	0.169859504448
78.0	0.168945035116
78.1	0.168030565784
78.2	0.167116096452
78.3	0.16620162712
78.4	0.165287157788
78.5	0.164372688456
78.6	0.163458219124
78.7	0.162543749792
78.8	0.16162928046
78.9	0.160714811128
79.0	0.159800341796
79.1	0.158885872464
79.2	0.157971403132
79.3	0.1570569338
79.4	0.156142464468
79.5	0.155227995136
79.6	0.154318308591
79.7	0.153462428397
79.8	0.152606548203
79.9	0.151750668009
80.0	0.150894787815
80.1	0.150038907621
80.2	0.149183027427
80.3	0.148327147233
80.4	0.147471267039
80.5	0.146615386846
80.6	0.145759506652
80.7	0.144903626458
80.8	0.144047746264
80.9	0.14319186607
81.0	0.142335985876
81.1	0.141480105682
81.2	0.140624225488
81.3	0.139768345294
81.4	0.1389124651
81.5	0.138056584906
81.6	0.137200704712
81.7	0.136381702182
81.8	0.135580579731
81.9	0.13477945728
82.0	0.133978334829
82.1	0.133177212378
82.2	0.132376089927
82.3	0.131574967476
82.4	0.130773845025
82.5	0.129972722574
82.6	0.129171600123
82.7	0.128370477672
82.8	0.127569355221
82.9	0.12676823277
83.0	0.12596711032
83.1	0.125165987869
83.2	0.124364865418
83.3	0.123563742967
83.4	0.122762620516
83.5	0.121961498065
83.6	0.121160375614
83.7	0.120372806801
83.8	0.119622771141
83.9	0.118872735481
84.0	0.11812269982
84.1	0.11737266416
84.2	0.1166226285
84.3	0.11587259284
84.4	0.115122557179
84.5	0.114372521519
84.6	0.113622485859
84.7	0.112872450199
84.8	0.112122414538
84.9	0.111372378878
85.0	0.110622343218
85.1	0.109872307558
85.2	0.109122271897
85.3	0.108372236237
85.4	0.107622200577
85.5	0.106872164917
85.6	0.106122129256
85.7	0.105372093596
85.8	0.104662850502
85.9	0.103960406168
86.0	0.103257961834
86.1	0.1025555175
86.2	0.101853073167
86.3	0.101150628833
86.4	0.100448184499
86.5	0.0997457401654
86.6	0.0990432958317
86.7	0.098340851498
86.8	0.0976384071642
86.9	0.0969359628305
87.0	0.0962335184968
87.1	0.095531074163
87.2	0.0948286298293
87.3	0.0941261854956
87.4	0.0934237411619
87.5	0.0927212968281
87.6	0.0920188524944
87.7	0.0913164081607
87.8	0.0906338445757
87.9	0.0899756800914
88.0	0.0893175156071
88.1	0.0886593511228
88.2	0.0880011866385
88.3	0.0873430221542
88.4	0.0866848576699
88.5	0.0860266931857
88.6	0.0853685287014
88.7	0.0847103642171
88.8	0.0840521997328
88.9	0.0833940352485
89.0	0.0827358707642
89.1	0.0820777062799
89.2	0.0814195417956
89.3	0.0807613773114
89.4	0.0801032128271
89.5	0.0794450483428
89.6	0.0787868838585
89.7	0.0781287193742
89.8	0.0774722347203
89.9	0.0768552260816
90.0	0.0762382174428
90.1	0.075621208804
90.2	0.0750042001652
90.3	0.0743871915264
90.4	0.0737701828876
90.5	0.0731531742488
90.6	0.0725361656101
90.7	0.0719191569713
90.8	0.0713021483325
90.9	0.0706851396937
91.0	0.0700681310549
91.1	0.0694511224161
91.2	0.0688341137773
91.3	0.0682171051386
91.4	0.0676000964998
91.5	0.066983087861
91.6	0.0663660792222
91.7	0.0657490705834
91.8	0.0651320619446
91.9	0.0645392326797
92.0	0.0639604430511
92.1	0.0633816534226
92.2	0.0628028637941
92.3	0.0622240741656
92.4	0.061645284537
92.5	0.0610664949085
92.6	0.06048770528
92.7	0.0599089156514
92.8	0.0593301260229
92.9	0.0587513363944
93.0	0.0581725467659
93.1	0.0575937571373
93.2	0.0570149675088
93.3	0.0564361778803
93.4	0.0558573882517
93.5	0.0552785986232
93.6	0.0546998089947
93.7	0.0541210193662
93.8	0.0535422297376
93.9	0.0529714019136
94.0	0.0524280785052
94.1	0.0518847550968
94.2	0.0513414316884
94.3	0.0507981082799
94.4	0.0502547848715
94.5	0.0497114614631
94.6	0.0491681380547
94.7	0.0486248146463
94.8	0.0480814912378
94.9	0.0475381678294
95.0	0.046994844421
95.1	0.0464515210126
95.2	0.0459081976042
95.3	0.0453648741957
95.4	0.0448215507873
95.5	0.0442782273789
95.6	0.0437349039705
95.7	0.0431915805621
95.8	0.0426482571537
95.9	0.0421049337452
96.0	0.0415884611945
96.1	0.0410780300867
96.2	0.0405675989789
96.3	0.0400571678711
96.4	0.0395467367633
96.5	0.0390363056555
96.6	0.0385258745477
96.7	0.0380154434399
96.8	0.0375050123321
96.9	0.0369945812243
97.0	0.0364841501165
97.1	0.0359737190087
97.2	0.0354632879009
97.3	0.0349528567931
97.4	0.0344424256853
97.5	0.0339319945775
97.6	0.0334215634697
97.7	0.0329111323619
97.8	0.0324007012541
97.9	0.0318902701463
98.0	0.0313922841941
98.1	0.0309123437175
98.2	0.0304324032409
98.3	0.0299524627642
98.4	0.0294725222876
98.5	0.028992581811
98.6	0.0285126413344
98.7	0.0280327008578
98.8	0.0275527603812
98.9	0.0270728199046
99.0	0.026592879428
99.1	0.0261129389514
99.2	0.0256329984748
99.3	0.0251530579982
99.4	0.0246731175215
99.5	0.0241931770449
99.6	0.0237132365683
99.7	0.0232332960917
99.8	0.0227533556151
