# E 	p
0.50	0.00E+00
1.50	5.84E+07
2.50	2.38E+07
3.50	2.62E+08
4.50	1.23E+09
5.50	2.86E+09
6.50	4.94E+09
7.50	7.18E+09
8.50	1.65E+10
9.50	2.59E+10
10.50	6.62E+09
11.50	5.04E+09
12.50	4.02E+09
13.50	4.64E+09
14.50	5.20E+09
15.50	5.73E+09
16.50	6.27E+09
17.50	6.80E+09
18.50	7.26E+09
19.50	7.63E+09
20.50	7.92E+09
21.50	8.19E+09
22.50	8.46E+09
23.50	8.66E+09
24.50	8.78E+09
25.50	8.82E+09
26.50	8.80E+09
27.50	8.77E+09
28.50	8.67E+09
29.50	8.58E+09
30.50	8.53E+09
31.50	8.34E+09
32.50	8.21E+09
33.50	7.98E+09
34.50	7.84E+09
35.50	7.65E+09
36.50	7.47E+09
37.50	7.30E+09
38.50	7.18E+09
39.50	6.96E+09
40.50	6.67E+09
41.50	6.53E+09
42.50	6.24E+09
43.50	6.11E+09
44.50	5.90E+09
45.50	5.78E+09
46.50	5.58E+09
47.50	5.44E+09
48.50	5.34E+09
49.50	5.10E+09
50.50	4.93E+09
51.50	4.74E+09
52.50	4.62E+09
53.50	4.51E+09
54.50	4.38E+09
55.50	4.24E+09
56.50	4.05E+09
57.50	9.47E+09
58.50	3.76E+09
59.50	1.34E+10
60.50	3.49E+09
61.50	3.34E+09
62.50	3.26E+09
63.50	3.07E+09
64.50	3.01E+09
65.50	2.91E+09
66.50	2.80E+09
67.50	6.10E+09
68.50	2.54E+09
69.50	3.07E+09
70.50	2.03E+09
71.50	1.98E+09
72.50	1.87E+09
73.50	1.78E+09
74.50	1.73E+09
75.50	1.63E+09
76.50	1.56E+09
77.50	1.49E+09
78.50	1.43E+09
79.50	1.36E+09
80.50	1.33E+09
81.50	1.24E+09
82.50	1.16E+09
83.50	1.13E+09
84.50	1.01E+09
85.50	9.73E+08
86.50	9.20E+08
87.50	8.54E+08
88.50	7.95E+08
89.50	7.02E+08
90.50	6.29E+08
91.50	5.81E+08
92.50	5.25E+08
93.50	4.59E+08
94.50	4.02E+08
95.50	3.30E+08
96.50	2.77E+08
97.50	1.79E+08
98.50	1.15E+08
99.50	5.23E+07