# mesh name: box_quer_x
# primitive scorer name: dDep
# iX, iY, iZ, value [Gy]
0,0,0,5.849285817893446e-06
0,0,1,6.48687989277852e-06
0,0,2,7.482316039780022e-06
0,0,3,1.811316804742336e-05
0,0,4,0.0001887770088835844
0,0,5,0.0001937387700292873
0,0,6,0.0001895674483948692
0,0,7,0.0001931248656970785
0,0,8,0.0001918559130752144
0,0,9,0.0001950950711529054
0,0,10,0.0001947957143762817
0,0,11,0.0001945622813823326
0,0,12,0.0001899788136743384
0,0,13,0.0001930421193369814
0,0,14,0.0001940336915741742
0,0,15,0.0001944690958546683
0,0,16,0.0001906040850803189
0,0,17,0.000194104866294773
0,0,18,0.0001921547731224814
0,0,19,0.0001564471017820963
0,0,20,8.701826511726966e-06
0,0,21,7.820797034495662e-06
0,0,22,6.79778623137378e-06
0,0,23,5.22361846861621e-06
# primitive scorer name: eDep
# iX, iY, iZ, value [MeV]
0,0,0,9.127093465286652
0,0,1,10.12198085762215
0,0,2,11.6752369362727
0,0,3,28.26337827697646
0,0,4,294.5633805253677
0,0,5,302.3056005397691
0,0,6,295.7967644841519
0,0,7,301.347678086797
0,0,8,299.3676330790233
0,0,9,304.4219421766308
0,0,10,303.9548326243328
0,0,11,303.5905890534057
0,0,12,296.4386495742272
0,0,13,301.2185625355957
0,0,14,302.7657894566591
0,0,15,303.445184460937
0,0,16,297.4143089523567
0,0,17,302.8768488829686
0,0,18,299.8339675460589
0,0,19,244.1165237592542
0,0,20,13.57813353012798
0,0,21,12.20339503474385
0,0,22,10.60711208554543
0,0,23,8.150816266186101
